Tidy_dbinom returns a data table that pairs number of successes with probabilities given the probability of a single trial and the total number of trials. — tidy_dbinom • ma206distributions
…
#>  7             6    0.205                  0.5         10
#>  8             7    0.117                  0.5         10
#>  9             8    0.0439                 0.5         10
#> 10             9    0.00977                0.5         10
#> 11            10    0.000977               0.5         10
tidy_dbinom(1/12, 3)
#> # A tibble: 4 × 4
#>   num_successes probability single_trial_prob num_trials
#>           <int>       <dbl>             <dbl>      <dbl>
#> 1             0    0.770               0.0833          3
#> 2             1    0.210               0.0833          3
#> 3             2    0.0191              0.0833          3
#> 4             3    0.000579            0.0833          3
tidy_dbinom(.5, 20)
#> # A tibble: 21 × 4
#>    num_successes probability single_trial_prob num_trials
#>            <int>       <dbl>             <dbl>      <dbl>
#>  1             0 0.000000954               0.5         20
#>  2             1 0.0000191                 0.5         20
#>  3             2 0.000181                  0.5         20
#>  4             3 0.00109                   0.5         20
#>  5             4 0.00462                   0.5         20
#>  6             5 0.0148                    0.5         20
#>  7             6 0.0370                    0.5         20
#>  8             7 0.0739                    0.5         20
#>  9             8 0.120                     0.5         20
#> 10             9 0.160                     0.5         20
#> # … with 11 more rows
…
